[
  {
    "name": "Africa/Abidjan",
    "code": "Africa_Abidjan"
  },
  {
    "name": "Africa/Accra",
    "code": "Africa_Accra"
  },
  {
    "name": "Africa/Addis_Ababa",
    "code": "Africa_Addis_Ababa"
  },
  {
    "name": "Africa/Algiers",
    "code": "Africa_Algiers"
  },
  {
    "name": "Africa/Asmara",
    "code": "Africa_Asmara"
  },
  {
    "name": "Africa/Asmera",
    "code": "Africa_Asmera"
  },
  {
    "name": "Africa/Bamako",
    "code": "Africa_Bamako"
  },
  {
    "name": "Africa/Bangui",
    "code": "Africa_Bangui"
  },
  {
    "name": "Africa/Banjul",
    "code": "Africa_Banjul"
  },
  {
    "name": "Africa/Bissau",
    "code": "Africa_Bissau"
  },
  {
    "name": "Africa/Blantyre",
    "code": "Africa_Blantyre"
  },
  {
    "name": "Africa/Brazzaville",
    "code": "Africa_Brazzaville"
  },
  {
    "name": "Africa/Bujumbura",
    "code": "Africa_Bujumbura"
  },
  {
    "name": "Africa/Cairo",
    "code": "Africa_Cairo"
  },
  {
    "name": "Africa/Casablanca",
    "code": "Africa_Casablanca"
  },
  {
    "name": "Africa/Ceuta",
    "code": "Africa_Ceuta"
  },
  {
    "name": "Africa/Conakry",
    "code": "Africa_Conakry"
  },
  {
    "name": "Africa/Dakar",
    "code": "Africa_Dakar"
  },
  {
    "name": "Africa/Dar_es_Salaam",
    "code": "Africa_Dar_es_Salaam"
  },
  {
    "name": "Africa/Djibouti",
    "code": "Africa_Djibouti"
  },
  {
    "name": "Africa/Douala",
    "code": "Africa_Douala"
  },
  {
    "name": "Africa/El_Aaiun",
    "code": "Africa_El_Aaiun"
  },
  {
    "name": "Africa/Freetown",
    "code": "Africa_Freetown"
  },
  {
    "name": "Africa/Gaborone",
    "code": "Africa_Gaborone"
  },
  {
    "name": "Africa/Harare",
    "code": "Africa_Harare"
  },
  {
    "name": "Africa/Johannesburg",
    "code": "Africa_Johannesburg"
  },
  {
    "name": "Africa/Juba",
    "code": "Africa_Juba"
  },
  {
    "name": "Africa/Kampala",
    "code": "Africa_Kampala"
  },
  {
    "name": "Africa/Khartoum",
    "code": "Africa_Khartoum"
  },
  {
    "name": "Africa/Kigali",
    "code": "Africa_Kigali"
  },
  {
    "name": "Africa/Kinshasa",
    "code": "Africa_Kinshasa"
  },
  {
    "name": "Africa/Lagos",
    "code": "Africa_Lagos"
  },
  {
    "name": "Africa/Libreville",
    "code": "Africa_Libreville"
  },
  {
    "name": "Africa/Lome",
    "code": "Africa_Lome"
  },
  {
    "name": "Africa/Luanda",
    "code": "Africa_Luanda"
  },
  {
    "name": "Africa/Lubumbashi",
    "code": "Africa_Lubumbashi"
  },
  {
    "name": "Africa/Lusaka",
    "code": "Africa_Lusaka"
  },
  {
    "name": "Africa/Malabo",
    "code": "Africa_Malabo"
  },
  {
    "name": "Africa/Maputo",
    "code": "Africa_Maputo"
  },
  {
    "name": "Africa/Maseru",
    "code": "Africa_Maseru"
  },
  {
    "name": "Africa/Mbabane",
    "code": "Africa_Mbabane"
  },
  {
    "name": "Africa/Mogadishu",
    "code": "Africa_Mogadishu"
  },
  {
    "name": "Africa/Monrovia",
    "code": "Africa_Monrovia"
  },
  {
    "name": "Africa/Nairobi",
    "code": "Africa_Nairobi"
  },
  {
    "name": "Africa/Ndjamena",
    "code": "Africa_Ndjamena"
  },
  {
    "name": "Africa/Niamey",
    "code": "Africa_Niamey"
  },
  {
    "name": "Africa/Nouakchott",
    "code": "Africa_Nouakchott"
  },
  {
    "name": "Africa/Ouagadougou",
    "code": "Africa_Ouagadougou"
  },
  {
    "name": "Africa/Porto-Novo",
    "code": "Africa_Porto_Novo"
  },
  {
    "name": "Africa/Sao_Tome",
    "code": "Africa_Sao_Tome"
  },
  {
    "name": "Africa/Timbuktu",
    "code": "Africa_Timbuktu"
  },
  {
    "name": "Africa/Tripoli",
    "code": "Africa_Tripoli"
  },
  {
    "name": "Africa/Tunis",
    "code": "Africa_Tunis"
  },
  {
    "name": "Africa/Windhoek",
    "code": "Africa_Windhoek"
  },
  {
    "name": "America/Adak",
    "code": "America_Adak"
  },
  {
    "name": "America/Anchorage",
    "code": "America_Anchorage"
  },
  {
    "name": "America/Anguilla",
    "code": "America_Anguilla"
  },
  {
    "name": "America/Antigua",
    "code": "America_Antigua"
  },
  {
    "name": "America/Araguaina",
    "code": "America_Araguaina"
  },
  {
    "name": "America/Argentina/Buenos_Aires",
    "code": "America_Argentina_Buenos_Aires"
  },
  {
    "name": "America/Argentina/Catamarca",
    "code": "America_Argentina_Catamarca"
  },
  {
    "name": "America/Argentina/ComodRivadavia",
    "code": "America_Argentina_ComodRivadavia"
  },
  {
    "name": "America/Argentina/Cordoba",
    "code": "America_Argentina_Cordoba"
  },
  {
    "name": "America/Argentina/Jujuy",
    "code": "America_Argentina_Jujuy"
  },
  {
    "name": "America/Argentina/La_Rioja",
    "code": "America_Argentina_La_Rioja"
  },
  {
    "name": "America/Argentina/Mendoza",
    "code": "America_Argentina_Mendoza"
  },
  {
    "name": "America/Argentina/Rio_Gallegos",
    "code": "America_Argentina_Rio_Gallegos"
  },
  {
    "name": "America/Argentina/Salta",
    "code": "America_Argentina_Salta"
  },
  {
    "name": "America/Argentina/San_Juan",
    "code": "America_Argentina_San_Juan"
  },
  {
    "name": "America/Argentina/San_Luis",
    "code": "America_Argentina_San_Luis"
  },
  {
    "name": "America/Argentina/Tucuman",
    "code": "America_Argentina_Tucuman"
  },
  {
    "name": "America/Argentina/Ushuaia",
    "code": "America_Argentina_Ushuaia"
  },
  {
    "name": "America/Aruba",
    "code": "America_Aruba"
  },
  {
    "name": "America/Asuncion",
    "code": "America_Asuncion"
  },
  {
    "name": "America/Atikokan",
    "code": "America_Atikokan"
  },
  {
    "name": "America/Atka",
    "code": "America_Atka"
  },
  {
    "name": "America/Bahia",
    "code": "America_Bahia"
  },
  {
    "name": "America/Bahia_Banderas",
    "code": "America_Bahia_Banderas"
  },
  {
    "name": "America/Barbados",
    "code": "America_Barbados"
  },
  {
    "name": "America/Belem",
    "code": "America_Belem"
  },
  {
    "name": "America/Belize",
    "code": "America_Belize"
  },
  {
    "name": "America/Blanc-Sablon",
    "code": "America_Blanc_Sablon"
  },
  {
    "name": "America/Boa_Vista",
    "code": "America_Boa_Vista"
  },
  {
    "name": "America/Bogota",
    "code": "America_Bogota"
  },
  {
    "name": "America/Boise",
    "code": "America_Boise"
  },
  {
    "name": "America/Buenos_Aires",
    "code": "America_Buenos_Aires"
  },
  {
    "name": "America/Cambridge_Bay",
    "code": "America_Cambridge_Bay"
  },
  {
    "name": "America/Campo_Grande",
    "code": "America_Campo_Grande"
  },
  {
    "name": "America/Cancun",
    "code": "America_Cancun"
  },
  {
    "name": "America/Caracas",
    "code": "America_Caracas"
  },
  {
    "name": "America/Catamarca",
    "code": "America_Catamarca"
  },
  {
    "name": "America/Cayenne",
    "code": "America_Cayenne"
  },
  {
    "name": "America/Cayman",
    "code": "America_Cayman"
  },
  {
    "name": "America/Chicago",
    "code": "America_Chicago"
  },
  {
    "name": "America/Chihuahua",
    "code": "America_Chihuahua"
  },
  {
    "name": "America/Coral_Harbour",
    "code": "America_Coral_Harbour"
  },
  {
    "name": "America/Cordoba",
    "code": "America_Cordoba"
  },
  {
    "name": "America/Costa_Rica",
    "code": "America_Costa_Rica"
  },
  {
    "name": "America/Creston",
    "code": "America_Creston"
  },
  {
    "name": "America/Cuiaba",
    "code": "America_Cuiaba"
  },
  {
    "name": "America/Curacao",
    "code": "America_Curacao"
  },
  {
    "name": "America/Danmarkshavn",
    "code": "America_Danmarkshavn"
  },
  {
    "name": "America/Dawson",
    "code": "America_Dawson"
  },
  {
    "name": "America/Dawson_Creek",
    "code": "America_Dawson_Creek"
  },
  {
    "name": "America/Denver",
    "code": "America_Denver"
  },
  {
    "name": "America/Detroit",
    "code": "America_Detroit"
  },
  {
    "name": "America/Dominica",
    "code": "America_Dominica"
  },
  {
    "name": "America/Edmonton",
    "code": "America_Edmonton"
  },
  {
    "name": "America/Eirunepe",
    "code": "America_Eirunepe"
  },
  {
    "name": "America/El_Salvador",
    "code": "America_El_Salvador"
  },
  {
    "name": "America/Ensenada",
    "code": "America_Ensenada"
  },
  {
    "name": "America/Fort_Nelson",
    "code": "America_Fort_Nelson"
  },
  {
    "name": "America/Fort_Wayne",
    "code": "America_Fort_Wayne"
  },
  {
    "name": "America/Fortaleza",
    "code": "America_Fortaleza"
  },
  {
    "name": "America/Glace_Bay",
    "code": "America_Glace_Bay"
  },
  {
    "name": "America/Godthab",
    "code": "America_Godthab"
  },
  {
    "name": "America/Goose_Bay",
    "code": "America_Goose_Bay"
  },
  {
    "name": "America/Grand_Turk",
    "code": "America_Grand_Turk"
  },
  {
    "name": "America/Grenada",
    "code": "America_Grenada"
  },
  {
    "name": "America/Guadeloupe",
    "code": "America_Guadeloupe"
  },
  {
    "name": "America/Guatemala",
    "code": "America_Guatemala"
  },
  {
    "name": "America/Guayaquil",
    "code": "America_Guayaquil"
  },
  {
    "name": "America/Guyana",
    "code": "America_Guyana"
  },
  {
    "name": "America/Halifax",
    "code": "America_Halifax"
  },
  {
    "name": "America/Havana",
    "code": "America_Havana"
  },
  {
    "name": "America/Hermosillo",
    "code": "America_Hermosillo"
  },
  {
    "name": "America/Indiana/Indianapolis",
    "code": "America_Indiana_Indianapolis"
  },
  {
    "name": "America/Indiana/Knox",
    "code": "America_Indiana_Knox"
  },
  {
    "name": "America/Indiana/Marengo",
    "code": "America_Indiana_Marengo"
  },
  {
    "name": "America/Indiana/Petersburg",
    "code": "America_Indiana_Petersburg"
  },
  {
    "name": "America/Indiana/Tell_City",
    "code": "America_Indiana_Tell_City"
  },
  {
    "name": "America/Indiana/Vevay",
    "code": "America_Indiana_Vevay"
  },
  {
    "name": "America/Indiana/Vincennes",
    "code": "America_Indiana_Vincennes"
  },
  {
    "name": "America/Indiana/Winamac",
    "code": "America_Indiana_Winamac"
  },
  {
    "name": "America/Indianapolis",
    "code": "America_Indianapolis"
  },
  {
    "name": "America/Inuvik",
    "code": "America_Inuvik"
  },
  {
    "name": "America/Iqaluit",
    "code": "America_Iqaluit"
  },
  {
    "name": "America/Jamaica",
    "code": "America_Jamaica"
  },
  {
    "name": "America/Jujuy",
    "code": "America_Jujuy"
  },
  {
    "name": "America/Juneau",
    "code": "America_Juneau"
  },
  {
    "name": "America/Kentucky/Louisville",
    "code": "America_Kentucky_Louisville"
  },
  {
    "name": "America/Kentucky/Monticello",
    "code": "America_Kentucky_Monticello"
  },
  {
    "name": "America/Knox_IN",
    "code": "America_Knox_IN"
  },
  {
    "name": "America/Kralendijk",
    "code": "America_Kralendijk"
  },
  {
    "name": "America/La_Paz",
    "code": "America_La_Paz"
  },
  {
    "name": "America/Lima",
    "code": "America_Lima"
  },
  {
    "name": "America/Los_Angeles",
    "code": "America_Los_Angeles"
  },
  {
    "name": "America/Louisville",
    "code": "America_Louisville"
  },
  {
    "name": "America/Lower_Princes",
    "code": "America_Lower_Princes"
  },
  {
    "name": "America/Maceio",
    "code": "America_Maceio"
  },
  {
    "name": "America/Managua",
    "code": "America_Managua"
  },
  {
    "name": "America/Manaus",
    "code": "America_Manaus"
  },
  {
    "name": "America/Marigot",
    "code": "America_Marigot"
  },
  {
    "name": "America/Martinique",
    "code": "America_Martinique"
  },
  {
    "name": "America/Matamoros",
    "code": "America_Matamoros"
  },
  {
    "name": "America/Mazatlan",
    "code": "America_Mazatlan"
  },
  {
    "name": "America/Mendoza",
    "code": "America_Mendoza"
  },
  {
    "name": "America/Menominee",
    "code": "America_Menominee"
  },
  {
    "name": "America/Merida",
    "code": "America_Merida"
  },
  {
    "name": "America/Metlakatla",
    "code": "America_Metlakatla"
  },
  {
    "name": "America/Mexico_City",
    "code": "America_Mexico_City"
  },
  {
    "name": "America/Miquelon",
    "code": "America_Miquelon"
  },
  {
    "name": "America/Moncton",
    "code": "America_Moncton"
  },
  {
    "name": "America/Monterrey",
    "code": "America_Monterrey"
  },
  {
    "name": "America/Montevideo",
    "code": "America_Montevideo"
  },
  {
    "name": "America/Montreal",
    "code": "America_Montreal"
  },
  {
    "name": "America/Montserrat",
    "code": "America_Montserrat"
  },
  {
    "name": "America/Nassau",
    "code": "America_Nassau"
  },
  {
    "name": "America/New_York",
    "code": "America_New_York"
  },
  {
    "name": "America/Nipigon",
    "code": "America_Nipigon"
  },
  {
    "name": "America/Nome",
    "code": "America_Nome"
  },
  {
    "name": "America/Noronha",
    "code": "America_Noronha"
  },
  {
    "name": "America/North_Dakota/Beulah",
    "code": "America_North_Dakota_Beulah"
  },
  {
    "name": "America/North_Dakota/Center",
    "code": "America_North_Dakota_Center"
  },
  {
    "name": "America/North_Dakota/New_Salem",
    "code": "America_North_Dakota_New_Salem"
  },
  {
    "name": "America/Ojinaga",
    "code": "America_Ojinaga"
  },
  {
    "name": "America/Panama",
    "code": "America_Panama"
  },
  {
    "name": "America/Pangnirtung",
    "code": "America_Pangnirtung"
  },
  {
    "name": "America/Paramaribo",
    "code": "America_Paramaribo"
  },
  {
    "name": "America/Phoenix",
    "code": "America_Phoenix"
  },
  {
    "name": "America/Port-au-Prince",
    "code": "America_Port_au_Prince"
  },
  {
    "name": "America/Port_of_Spain",
    "code": "America_Port_of_Spain"
  },
  {
    "name": "America/Porto_Acre",
    "code": "America_Porto_Acre"
  },
  {
    "name": "America/Porto_Velho",
    "code": "America_Porto_Velho"
  },
  {
    "name": "America/Puerto_Rico",
    "code": "America_Puerto_Rico"
  },
  {
    "name": "America/Punta_Arenas",
    "code": "America_Punta_Arenas"
  },
  {
    "name": "America/Rainy_River",
    "code": "America_Rainy_River"
  },
  {
    "name": "America/Rankin_Inlet",
    "code": "America_Rankin_Inlet"
  },
  {
    "name": "America/Recife",
    "code": "America_Recife"
  },
  {
    "name": "America/Regina",
    "code": "America_Regina"
  },
  {
    "name": "America/Resolute",
    "code": "America_Resolute"
  },
  {
    "name": "America/Rio_Branco",
    "code": "America_Rio_Branco"
  },
  {
    "name": "America/Rosario",
    "code": "America_Rosario"
  },
  {
    "name": "America/Santa_Isabel",
    "code": "America_Santa_Isabel"
  },
  {
    "name": "America/Santarem",
    "code": "America_Santarem"
  },
  {
    "name": "America/Santiago",
    "code": "America_Santiago"
  },
  {
    "name": "America/Santo_Domingo",
    "code": "America_Santo_Domingo"
  },
  {
    "name": "America/Sao_Paulo",
    "code": "America_Sao_Paulo"
  },
  {
    "name": "America/Scoresbysund",
    "code": "America_Scoresbysund"
  },
  {
    "name": "America/Shiprock",
    "code": "America_Shiprock"
  },
  {
    "name": "America/Sitka",
    "code": "America_Sitka"
  },
  {
    "name": "America/St_Barthelemy",
    "code": "America_St_Barthelemy"
  },
  {
    "name": "America/St_Johns",
    "code": "America_St_Johns"
  },
  {
    "name": "America/St_Kitts",
    "code": "America_St_Kitts"
  },
  {
    "name": "America/St_Lucia",
    "code": "America_St_Lucia"
  },
  {
    "name": "America/St_Thomas",
    "code": "America_St_Thomas"
  },
  {
    "name": "America/St_Vincent",
    "code": "America_St_Vincent"
  },
  {
    "name": "America/Swift_Current",
    "code": "America_Swift_Current"
  },
  {
    "name": "America/Tegucigalpa",
    "code": "America_Tegucigalpa"
  },
  {
    "name": "America/Thule",
    "code": "America_Thule"
  },
  {
    "name": "America/Thunder_Bay",
    "code": "America_Thunder_Bay"
  },
  {
    "name": "America/Tijuana",
    "code": "America_Tijuana"
  },
  {
    "name": "America/Toronto",
    "code": "America_Toronto"
  },
  {
    "name": "America/Tortola",
    "code": "America_Tortola"
  },
  {
    "name": "America/Vancouver",
    "code": "America_Vancouver"
  },
  {
    "name": "America/Virgin",
    "code": "America_Virgin"
  },
  {
    "name": "America/Whitehorse",
    "code": "America_Whitehorse"
  },
  {
    "name": "America/Winnipeg",
    "code": "America_Winnipeg"
  },
  {
    "name": "America/Yakutat",
    "code": "America_Yakutat"
  },
  {
    "name": "America/Yellowknife",
    "code": "America_Yellowknife"
  },
  {
    "name": "Antarctica/Casey",
    "code": "Antarctica_Casey"
  },
  {
    "name": "Antarctica/Davis",
    "code": "Antarctica_Davis"
  },
  {
    "name": "Antarctica/DumontDUrville",
    "code": "Antarctica_DumontDUrville"
  },
  {
    "name": "Antarctica/Macquarie",
    "code": "Antarctica_Macquarie"
  },
  {
    "name": "Antarctica/Mawson",
    "code": "Antarctica_Mawson"
  },
  {
    "name": "Antarctica/McMurdo",
    "code": "Antarctica_McMurdo"
  },
  {
    "name": "Antarctica/Palmer",
    "code": "Antarctica_Palmer"
  },
  {
    "name": "Antarctica/Rothera",
    "code": "Antarctica_Rothera"
  },
  {
    "name": "Antarctica/South_Pole",
    "code": "Antarctica_South_Pole"
  },
  {
    "name": "Antarctica/Syowa",
    "code": "Antarctica_Syowa"
  },
  {
    "name": "Antarctica/Troll",
    "code": "Antarctica_Troll"
  },
  {
    "name": "Antarctica/Vostok",
    "code": "Antarctica_Vostok"
  },
  {
    "name": "Arctic/Longyearbyen",
    "code": "Arctic_Longyearbyen"
  },
  {
    "name": "Asia/Aden",
    "code": "Asia_Aden"
  },
  {
    "name": "Asia/Almaty",
    "code": "Asia_Almaty"
  },
  {
    "name": "Asia/Amman",
    "code": "Asia_Amman"
  },
  {
    "name": "Asia/Anadyr",
    "code": "Asia_Anadyr"
  },
  {
    "name": "Asia/Aqtau",
    "code": "Asia_Aqtau"
  },
  {
    "name": "Asia/Aqtobe",
    "code": "Asia_Aqtobe"
  },
  {
    "name": "Asia/Ashgabat",
    "code": "Asia_Ashgabat"
  },
  {
    "name": "Asia/Ashkhabad",
    "code": "Asia_Ashkhabad"
  },
  {
    "name": "Asia/Atyrau",
    "code": "Asia_Atyrau"
  },
  {
    "name": "Asia/Baghdad",
    "code": "Asia_Baghdad"
  },
  {
    "name": "Asia/Bahrain",
    "code": "Asia_Bahrain"
  },
  {
    "name": "Asia/Baku",
    "code": "Asia_Baku"
  },
  {
    "name": "Asia/Bangkok",
    "code": "Asia_Bangkok"
  },
  {
    "name": "Asia/Barnaul",
    "code": "Asia_Barnaul"
  },
  {
    "name": "Asia/Beirut",
    "code": "Asia_Beirut"
  },
  {
    "name": "Asia/Bishkek",
    "code": "Asia_Bishkek"
  },
  {
    "name": "Asia/Brunei",
    "code": "Asia_Brunei"
  },
  {
    "name": "Asia/Calcutta",
    "code": "Asia_Calcutta"
  },
  {
    "name": "Asia/Chita",
    "code": "Asia_Chita"
  },
  {
    "name": "Asia/Choibalsan",
    "code": "Asia_Choibalsan"
  },
  {
    "name": "Asia/Chongqing",
    "code": "Asia_Chongqing"
  },
  {
    "name": "Asia/Chungking",
    "code": "Asia_Chungking"
  },
  {
    "name": "Asia/Colombo",
    "code": "Asia_Colombo"
  },
  {
    "name": "Asia/Dacca",
    "code": "Asia_Dacca"
  },
  {
    "name": "Asia/Damascus",
    "code": "Asia_Damascus"
  },
  {
    "name": "Asia/Dhaka",
    "code": "Asia_Dhaka"
  },
  {
    "name": "Asia/Dili",
    "code": "Asia_Dili"
  },
  {
    "name": "Asia/Dubai",
    "code": "Asia_Dubai"
  },
  {
    "name": "Asia/Dushanbe",
    "code": "Asia_Dushanbe"
  },
  {
    "name": "Asia/Famagusta",
    "code": "Asia_Famagusta"
  },
  {
    "name": "Asia/Gaza",
    "code": "Asia_Gaza"
  },
  {
    "name": "Asia/Harbin",
    "code": "Asia_Harbin"
  },
  {
    "name": "Asia/Hebron",
    "code": "Asia_Hebron"
  },
  {
    "name": "Asia/Ho_Chi_Minh",
    "code": "Asia_Ho_Chi_Minh"
  },
  {
    "name": "Asia/Hong_Kong",
    "code": "Asia_Hong_Kong"
  },
  {
    "name": "Asia/Hovd",
    "code": "Asia_Hovd"
  },
  {
    "name": "Asia/Irkutsk",
    "code": "Asia_Irkutsk"
  },
  {
    "name": "Asia/Istanbul",
    "code": "Asia_Istanbul"
  },
  {
    "name": "Asia/Jakarta",
    "code": "Asia_Jakarta"
  },
  {
    "name": "Asia/Jayapura",
    "code": "Asia_Jayapura"
  },
  {
    "name": "Asia/Jerusalem",
    "code": "Asia_Jerusalem"
  },
  {
    "name": "Asia/Kabul",
    "code": "Asia_Kabul"
  },
  {
    "name": "Asia/Kamchatka",
    "code": "Asia_Kamchatka"
  },
  {
    "name": "Asia/Karachi",
    "code": "Asia_Karachi"
  },
  {
    "name": "Asia/Kashgar",
    "code": "Asia_Kashgar"
  },
  {
    "name": "Asia/Kathmandu",
    "code": "Asia_Kathmandu"
  },
  {
    "name": "Asia/Katmandu",
    "code": "Asia_Katmandu"
  },
  {
    "name": "Asia/Khandyga",
    "code": "Asia_Khandyga"
  },
  {
    "name": "Asia/Kolkata",
    "code": "Asia_Kolkata"
  },
  {
    "name": "Asia/Krasnoyarsk",
    "code": "Asia_Krasnoyarsk"
  },
  {
    "name": "Asia/Kuala_Lumpur",
    "code": "Asia_Kuala_Lumpur"
  },
  {
    "name": "Asia/Kuching",
    "code": "Asia_Kuching"
  },
  {
    "name": "Asia/Kuwait",
    "code": "Asia_Kuwait"
  },
  {
    "name": "Asia/Macao",
    "code": "Asia_Macao"
  },
  {
    "name": "Asia/Macau",
    "code": "Asia_Macau"
  },
  {
    "name": "Asia/Magadan",
    "code": "Asia_Magadan"
  },
  {
    "name": "Asia/Makassar",
    "code": "Asia_Makassar"
  },
  {
    "name": "Asia/Manila",
    "code": "Asia_Manila"
  },
  {
    "name": "Asia/Muscat",
    "code": "Asia_Muscat"
  },
  {
    "name": "Asia/Nicosia",
    "code": "Asia_Nicosia"
  },
  {
    "name": "Asia/Novokuznetsk",
    "code": "Asia_Novokuznetsk"
  },
  {
    "name": "Asia/Novosibirsk",
    "code": "Asia_Novosibirsk"
  },
  {
    "name": "Asia/Omsk",
    "code": "Asia_Omsk"
  },
  {
    "name": "Asia/Oral",
    "code": "Asia_Oral"
  },
  {
    "name": "Asia/Phnom_Penh",
    "code": "Asia_Phnom_Penh"
  },
  {
    "name": "Asia/Pontianak",
    "code": "Asia_Pontianak"
  },
  {
    "name": "Asia/Pyongyang",
    "code": "Asia_Pyongyang"
  },
  {
    "name": "Asia/Qatar",
    "code": "Asia_Qatar"
  },
  {
    "name": "Asia/Qostanay",
    "code": "Asia_Qostanay"
  },
  {
    "name": "Asia/Qyzylorda",
    "code": "Asia_Qyzylorda"
  },
  {
    "name": "Asia/Rangoon",
    "code": "Asia_Rangoon"
  },
  {
    "name": "Asia/Riyadh",
    "code": "Asia_Riyadh"
  },
  {
    "name": "Asia/Saigon",
    "code": "Asia_Saigon"
  },
  {
    "name": "Asia/Sakhalin",
    "code": "Asia_Sakhalin"
  },
  {
    "name": "Asia/Samarkand",
    "code": "Asia_Samarkand"
  },
  {
    "name": "Asia/Seoul",
    "code": "Asia_Seoul"
  },
  {
    "name": "Asia/Shanghai",
    "code": "Asia_Shanghai"
  },
  {
    "name": "Asia/Singapore",
    "code": "Asia_Singapore"
  },
  {
    "name": "Asia/Srednekolymsk",
    "code": "Asia_Srednekolymsk"
  },
  {
    "name": "Asia/Taipei",
    "code": "Asia_Taipei"
  },
  {
    "name": "Asia/Tashkent",
    "code": "Asia_Tashkent"
  },
  {
    "name": "Asia/Tbilisi",
    "code": "Asia_Tbilisi"
  },
  {
    "name": "Asia/Tehran",
    "code": "Asia_Tehran"
  },
  {
    "name": "Asia/Tel_Aviv",
    "code": "Asia_Tel_Aviv"
  },
  {
    "name": "Asia/Thimbu",
    "code": "Asia_Thimbu"
  },
  {
    "name": "Asia/Thimphu",
    "code": "Asia_Thimphu"
  },
  {
    "name": "Asia/Tokyo",
    "code": "Asia_Tokyo"
  },
  {
    "name": "Asia/Tomsk",
    "code": "Asia_Tomsk"
  },
  {
    "name": "Asia/Ujung_Pandang",
    "code": "Asia_Ujung_Pandang"
  },
  {
    "name": "Asia/Ulaanbaatar",
    "code": "Asia_Ulaanbaatar"
  },
  {
    "name": "Asia/Ulan_Bator",
    "code": "Asia_Ulan_Bator"
  },
  {
    "name": "Asia/Urumqi",
    "code": "Asia_Urumqi"
  },
  {
    "name": "Asia/Ust-Nera",
    "code": "Asia_Ust_Nera"
  },
  {
    "name": "Asia/Vientiane",
    "code": "Asia_Vientiane"
  },
  {
    "name": "Asia/Vladivostok",
    "code": "Asia_Vladivostok"
  },
  {
    "name": "Asia/Yakutsk",
    "code": "Asia_Yakutsk"
  },
  {
    "name": "Asia/Yangon",
    "code": "Asia_Yangon"
  },
  {
    "name": "Asia/Yekaterinburg",
    "code": "Asia_Yekaterinburg"
  },
  {
    "name": "Asia/Yerevan",
    "code": "Asia_Yerevan"
  },
  {
    "name": "Atlantic/Azores",
    "code": "Atlantic_Azores"
  },
  {
    "name": "Atlantic/Bermuda",
    "code": "Atlantic_Bermuda"
  },
  {
    "name": "Atlantic/Canary",
    "code": "Atlantic_Canary"
  },
  {
    "name": "Atlantic/Cape_Verde",
    "code": "Atlantic_Cape_Verde"
  },
  {
    "name": "Atlantic/Faeroe",
    "code": "Atlantic_Faeroe"
  },
  {
    "name": "Atlantic/Faroe",
    "code": "Atlantic_Faroe"
  },
  {
    "name": "Atlantic/Jan_Mayen",
    "code": "Atlantic_Jan_Mayen"
  },
  {
    "name": "Atlantic/Madeira",
    "code": "Atlantic_Madeira"
  },
  {
    "name": "Atlantic/Reykjavik",
    "code": "Atlantic_Reykjavik"
  },
  {
    "name": "Atlantic/South_Georgia",
    "code": "Atlantic_South_Georgia"
  },
  {
    "name": "Atlantic/St_Helena",
    "code": "Atlantic_St_Helena"
  },
  {
    "name": "Atlantic/Stanley",
    "code": "Atlantic_Stanley"
  },
  {
    "name": "Australia/ACT",
    "code": "Australia_ACT"
  },
  {
    "name": "Australia/Adelaide",
    "code": "Australia_Adelaide"
  },
  {
    "name": "Australia/Brisbane",
    "code": "Australia_Brisbane"
  },
  {
    "name": "Australia/Broken_Hill",
    "code": "Australia_Broken_Hill"
  },
  {
    "name": "Australia/Canberra",
    "code": "Australia_Canberra"
  },
  {
    "name": "Australia/Currie",
    "code": "Australia_Currie"
  },
  {
    "name": "Australia/Darwin",
    "code": "Australia_Darwin"
  },
  {
    "name": "Australia/Eucla",
    "code": "Australia_Eucla"
  },
  {
    "name": "Australia/Hobart",
    "code": "Australia_Hobart"
  },
  {
    "name": "Australia/LHI",
    "code": "Australia_LHI"
  },
  {
    "name": "Australia/Lindeman",
    "code": "Australia_Lindeman"
  },
  {
    "name": "Australia/Lord_Howe",
    "code": "Australia_Lord_Howe"
  },
  {
    "name": "Australia/Melbourne",
    "code": "Australia_Melbourne"
  },
  {
    "name": "Australia/NSW",
    "code": "Australia_NSW"
  },
  {
    "name": "Australia/North",
    "code": "Australia_North"
  },
  {
    "name": "Australia/Perth",
    "code": "Australia_Perth"
  },
  {
    "name": "Australia/Queensland",
    "code": "Australia_Queensland"
  },
  {
    "name": "Australia/South",
    "code": "Australia_South"
  },
  {
    "name": "Australia/Sydney",
    "code": "Australia_Sydney"
  },
  {
    "name": "Australia/Tasmania",
    "code": "Australia_Tasmania"
  },
  {
    "name": "Australia/Victoria",
    "code": "Australia_Victoria"
  },
  {
    "name": "Australia/West",
    "code": "Australia_West"
  },
  {
    "name": "Australia/Yancowinna",
    "code": "Australia_Yancowinna"
  },
  {
    "name": "Brazil/Acre",
    "code": "Brazil_Acre"
  },
  {
    "name": "Brazil/DeNoronha",
    "code": "Brazil_DeNoronha"
  },
  {
    "name": "Brazil/East",
    "code": "Brazil_East"
  },
  {
    "name": "Brazil/West",
    "code": "Brazil_West"
  },
  {
    "name": "CET",
    "code": "CET"
  },
  {
    "name": "CST6CDT",
    "code": "CST6CDT"
  },
  {
    "name": "Canada/Atlantic",
    "code": "Canada_Atlantic"
  },
  {
    "name": "Canada/Central",
    "code": "Canada_Central"
  },
  {
    "name": "Canada/Eastern",
    "code": "Canada_Eastern"
  },
  {
    "name": "Canada/Mountain",
    "code": "Canada_Mountain"
  },
  {
    "name": "Canada/Newfoundland",
    "code": "Canada_Newfoundland"
  },
  {
    "name": "Canada/Pacific",
    "code": "Canada_Pacific"
  },
  {
    "name": "Canada/Saskatchewan",
    "code": "Canada_Saskatchewan"
  },
  {
    "name": "Canada/Yukon",
    "code": "Canada_Yukon"
  },
  {
    "name": "Chile/Continental",
    "code": "Chile_Continental"
  },
  {
    "name": "Chile/EasterIsland",
    "code": "Chile_EasterIsland"
  },
  {
    "name": "Cuba",
    "code": "Cuba"
  },
  {
    "name": "EET",
    "code": "EET"
  },
  {
    "name": "EST",
    "code": "EST"
  },
  {
    "name": "EST5EDT",
    "code": "EST5EDT"
  },
  {
    "name": "Egypt",
    "code": "Egypt"
  },
  {
    "name": "Eire",
    "code": "Eire"
  },
  {
    "name": "Etc/GMT",
    "code": "Etc_GMT"
  },
  {
    "name": "Etc/GMT+0",
    "code": "Etc_GMT_0"
  },
  {
    "name": "Etc/GMT+1",
    "code": "Etc_GMT_1"
  },
  {
    "name": "Etc/GMT+10",
    "code": "Etc_GMT_10"
  },
  {
    "name": "Etc/GMT+11",
    "code": "Etc_GMT_11"
  },
  {
    "name": "Etc/GMT+12",
    "code": "Etc_GMT_12"
  },
  {
    "name": "Etc/GMT+2",
    "code": "Etc_GMT_2"
  },
  {
    "name": "Etc/GMT+3",
    "code": "Etc_GMT_3"
  },
  {
    "name": "Etc/GMT+4",
    "code": "Etc_GMT_4"
  },
  {
    "name": "Etc/GMT+5",
    "code": "Etc_GMT_5"
  },
  {
    "name": "Etc/GMT+6",
    "code": "Etc_GMT_6"
  },
  {
    "name": "Etc/GMT+7",
    "code": "Etc_GMT_7"
  },
  {
    "name": "Etc/GMT+8",
    "code": "Etc_GMT_8"
  },
  {
    "name": "Etc/GMT+9",
    "code": "Etc_GMT_9"
  },
  {
    "name": "Etc/GMT-0",
    "code": "Etc_GMT_0"
  },
  {
    "name": "Etc/GMT-1",
    "code": "Etc_GMT_1"
  },
  {
    "name": "Etc/GMT-10",
    "code": "Etc_GMT_10"
  },
  {
    "name": "Etc/GMT-11",
    "code": "Etc_GMT_11"
  },
  {
    "name": "Etc/GMT-12",
    "code": "Etc_GMT_12"
  },
  {
    "name": "Etc/GMT-13",
    "code": "Etc_GMT_13"
  },
  {
    "name": "Etc/GMT-14",
    "code": "Etc_GMT_14"
  },
  {
    "name": "Etc/GMT-2",
    "code": "Etc_GMT_2"
  },
  {
    "name": "Etc/GMT-3",
    "code": "Etc_GMT_3"
  },
  {
    "name": "Etc/GMT-4",
    "code": "Etc_GMT_4"
  },
  {
    "name": "Etc/GMT-5",
    "code": "Etc_GMT_5"
  },
  {
    "name": "Etc/GMT-6",
    "code": "Etc_GMT_6"
  },
  {
    "name": "Etc/GMT-7",
    "code": "Etc_GMT_7"
  },
  {
    "name": "Etc/GMT-8",
    "code": "Etc_GMT_8"
  },
  {
    "name": "Etc/GMT-9",
    "code": "Etc_GMT_9"
  },
  {
    "name": "Etc/GMT0",
    "code": "Etc_GMT0"
  },
  {
    "name": "Etc/Greenwich",
    "code": "Etc_Greenwich"
  },
  {
    "name": "Etc/UCT",
    "code": "Etc_UCT"
  },
  {
    "name": "Etc/UTC",
    "code": "Etc_UTC"
  },
  {
    "name": "Etc/Universal",
    "code": "Etc_Universal"
  },
  {
    "name": "Etc/Zulu",
    "code": "Etc_Zulu"
  },
  {
    "name": "Europe/Amsterdam",
    "code": "Europe_Amsterdam"
  },
  {
    "name": "Europe/Andorra",
    "code": "Europe_Andorra"
  },
  {
    "name": "Europe/Astrakhan",
    "code": "Europe_Astrakhan"
  },
  {
    "name": "Europe/Athens",
    "code": "Europe_Athens"
  },
  {
    "name": "Europe/Belfast",
    "code": "Europe_Belfast"
  },
  {
    "name": "Europe/Belgrade",
    "code": "Europe_Belgrade"
  },
  {
    "name": "Europe/Berlin",
    "code": "Europe_Berlin"
  },
  {
    "name": "Europe/Bratislava",
    "code": "Europe_Bratislava"
  },
  {
    "name": "Europe/Brussels",
    "code": "Europe_Brussels"
  },
  {
    "name": "Europe/Bucharest",
    "code": "Europe_Bucharest"
  },
  {
    "name": "Europe/Budapest",
    "code": "Europe_Budapest"
  },
  {
    "name": "Europe/Busingen",
    "code": "Europe_Busingen"
  },
  {
    "name": "Europe/Chisinau",
    "code": "Europe_Chisinau"
  },
  {
    "name": "Europe/Copenhagen",
    "code": "Europe_Copenhagen"
  },
  {
    "name": "Europe/Dublin",
    "code": "Europe_Dublin"
  },
  {
    "name": "Europe/Gibraltar",
    "code": "Europe_Gibraltar"
  },
  {
    "name": "Europe/Guernsey",
    "code": "Europe_Guernsey"
  },
  {
    "name": "Europe/Helsinki",
    "code": "Europe_Helsinki"
  },
  {
    "name": "Europe/Isle_of_Man",
    "code": "Europe_Isle_of_Man"
  },
  {
    "name": "Europe/Istanbul",
    "code": "Europe_Istanbul"
  },
  {
    "name": "Europe/Jersey",
    "code": "Europe_Jersey"
  },
  {
    "name": "Europe/Kaliningrad",
    "code": "Europe_Kaliningrad"
  },
  {
    "name": "Europe/Kiev",
    "code": "Europe_Kiev"
  },
  {
    "name": "Europe/Kirov",
    "code": "Europe_Kirov"
  },
  {
    "name": "Europe/Lisbon",
    "code": "Europe_Lisbon"
  },
  {
    "name": "Europe/Ljubljana",
    "code": "Europe_Ljubljana"
  },
  {
    "name": "Europe/London",
    "code": "Europe_London"
  },
  {
    "name": "Europe/Luxembourg",
    "code": "Europe_Luxembourg"
  },
  {
    "name": "Europe/Madrid",
    "code": "Europe_Madrid"
  },
  {
    "name": "Europe/Malta",
    "code": "Europe_Malta"
  },
  {
    "name": "Europe/Mariehamn",
    "code": "Europe_Mariehamn"
  },
  {
    "name": "Europe/Minsk",
    "code": "Europe_Minsk"
  },
  {
    "name": "Europe/Monaco",
    "code": "Europe_Monaco"
  },
  {
    "name": "Europe/Moscow",
    "code": "Europe_Moscow"
  },
  {
    "name": "Europe/Nicosia",
    "code": "Europe_Nicosia"
  },
  {
    "name": "Europe/Oslo",
    "code": "Europe_Oslo"
  },
  {
    "name": "Europe/Paris",
    "code": "Europe_Paris"
  },
  {
    "name": "Europe/Podgorica",
    "code": "Europe_Podgorica"
  },
  {
    "name": "Europe/Prague",
    "code": "Europe_Prague"
  },
  {
    "name": "Europe/Riga",
    "code": "Europe_Riga"
  },
  {
    "name": "Europe/Rome",
    "code": "Europe_Rome"
  },
  {
    "name": "Europe/Samara",
    "code": "Europe_Samara"
  },
  {
    "name": "Europe/San_Marino",
    "code": "Europe_San_Marino"
  },
  {
    "name": "Europe/Sarajevo",
    "code": "Europe_Sarajevo"
  },
  {
    "name": "Europe/Saratov",
    "code": "Europe_Saratov"
  },
  {
    "name": "Europe/Simferopol",
    "code": "Europe_Simferopol"
  },
  {
    "name": "Europe/Skopje",
    "code": "Europe_Skopje"
  },
  {
    "name": "Europe/Sofia",
    "code": "Europe_Sofia"
  },
  {
    "name": "Europe/Stockholm",
    "code": "Europe_Stockholm"
  },
  {
    "name": "Europe/Tallinn",
    "code": "Europe_Tallinn"
  },
  {
    "name": "Europe/Tirane",
    "code": "Europe_Tirane"
  },
  {
    "name": "Europe/Tiraspol",
    "code": "Europe_Tiraspol"
  },
  {
    "name": "Europe/Ulyanovsk",
    "code": "Europe_Ulyanovsk"
  },
  {
    "name": "Europe/Uzhgorod",
    "code": "Europe_Uzhgorod"
  },
  {
    "name": "Europe/Vaduz",
    "code": "Europe_Vaduz"
  },
  {
    "name": "Europe/Vatican",
    "code": "Europe_Vatican"
  },
  {
    "name": "Europe/Vienna",
    "code": "Europe_Vienna"
  },
  {
    "name": "Europe/Vilnius",
    "code": "Europe_Vilnius"
  },
  {
    "name": "Europe/Volgograd",
    "code": "Europe_Volgograd"
  },
  {
    "name": "Europe/Warsaw",
    "code": "Europe_Warsaw"
  },
  {
    "name": "Europe/Zagreb",
    "code": "Europe_Zagreb"
  },
  {
    "name": "Europe/Zaporozhye",
    "code": "Europe_Zaporozhye"
  },
  {
    "name": "Europe/Zurich",
    "code": "Europe_Zurich"
  },
  {
    "name": "GB",
    "code": "GB"
  },
  {
    "name": "GB-Eire",
    "code": "GB_Eire"
  },
  {
    "name": "GMT",
    "code": "GMT"
  },
  {
    "name": "GMT+0",
    "code": "GMT_0"
  },
  {
    "name": "GMT-0",
    "code": "GMT_0"
  },
  {
    "name": "GMT0",
    "code": "GMT0"
  },
  {
    "name": "Greenwich",
    "code": "Greenwich"
  },
  {
    "name": "HST",
    "code": "HST"
  },
  {
    "name": "Hongkong",
    "code": "Hongkong"
  },
  {
    "name": "Iceland",
    "code": "Iceland"
  },
  {
    "name": "Indian/Antananarivo",
    "code": "Indian_Antananarivo"
  },
  {
    "name": "Indian/Chagos",
    "code": "Indian_Chagos"
  },
  {
    "name": "Indian/Christmas",
    "code": "Indian_Christmas"
  },
  {
    "name": "Indian/Cocos",
    "code": "Indian_Cocos"
  },
  {
    "name": "Indian/Comoro",
    "code": "Indian_Comoro"
  },
  {
    "name": "Indian/Kerguelen",
    "code": "Indian_Kerguelen"
  },
  {
    "name": "Indian/Mahe",
    "code": "Indian_Mahe"
  },
  {
    "name": "Indian/Maldives",
    "code": "Indian_Maldives"
  },
  {
    "name": "Indian/Mauritius",
    "code": "Indian_Mauritius"
  },
  {
    "name": "Indian/Mayotte",
    "code": "Indian_Mayotte"
  },
  {
    "name": "Indian/Reunion",
    "code": "Indian_Reunion"
  },
  {
    "name": "Iran",
    "code": "Iran"
  },
  {
    "name": "Israel",
    "code": "Israel"
  },
  {
    "name": "Jamaica",
    "code": "Jamaica"
  },
  {
    "name": "Japan",
    "code": "Japan"
  },
  {
    "name": "Kwajalein",
    "code": "Kwajalein"
  },
  {
    "name": "Libya",
    "code": "Libya"
  },
  {
    "name": "MET",
    "code": "MET"
  },
  {
    "name": "MST",
    "code": "MST"
  },
  {
    "name": "MST7MDT",
    "code": "MST7MDT"
  },
  {
    "name": "Mexico/BajaNorte",
    "code": "Mexico_BajaNorte"
  },
  {
    "name": "Mexico/BajaSur",
    "code": "Mexico_BajaSur"
  },
  {
    "name": "Mexico/General",
    "code": "Mexico_General"
  },
  {
    "name": "NZ",
    "code": "NZ"
  },
  {
    "name": "NZ-CHAT",
    "code": "NZ_CHAT"
  },
  {
    "name": "Navajo",
    "code": "Navajo"
  },
  {
    "name": "PRC",
    "code": "PRC"
  },
  {
    "name": "PST8PDT",
    "code": "PST8PDT"
  },
  {
    "name": "Pacific/Apia",
    "code": "Pacific_Apia"
  },
  {
    "name": "Pacific/Auckland",
    "code": "Pacific_Auckland"
  },
  {
    "name": "Pacific/Bougainville",
    "code": "Pacific_Bougainville"
  },
  {
    "name": "Pacific/Chatham",
    "code": "Pacific_Chatham"
  },
  {
    "name": "Pacific/Chuuk",
    "code": "Pacific_Chuuk"
  },
  {
    "name": "Pacific/Easter",
    "code": "Pacific_Easter"
  },
  {
    "name": "Pacific/Efate",
    "code": "Pacific_Efate"
  },
  {
    "name": "Pacific/Enderbury",
    "code": "Pacific_Enderbury"
  },
  {
    "name": "Pacific/Fakaofo",
    "code": "Pacific_Fakaofo"
  },
  {
    "name": "Pacific/Fiji",
    "code": "Pacific_Fiji"
  },
  {
    "name": "Pacific/Funafuti",
    "code": "Pacific_Funafuti"
  },
  {
    "name": "Pacific/Galapagos",
    "code": "Pacific_Galapagos"
  },
  {
    "name": "Pacific/Gambier",
    "code": "Pacific_Gambier"
  },
  {
    "name": "Pacific/Guadalcanal",
    "code": "Pacific_Guadalcanal"
  },
  {
    "name": "Pacific/Guam",
    "code": "Pacific_Guam"
  },
  {
    "name": "Pacific/Honolulu",
    "code": "Pacific_Honolulu"
  },
  {
    "name": "Pacific/Johnston",
    "code": "Pacific_Johnston"
  },
  {
    "name": "Pacific/Kiritimati",
    "code": "Pacific_Kiritimati"
  },
  {
    "name": "Pacific/Kosrae",
    "code": "Pacific_Kosrae"
  },
  {
    "name": "Pacific/Kwajalein",
    "code": "Pacific_Kwajalein"
  },
  {
    "name": "Pacific/Majuro",
    "code": "Pacific_Majuro"
  },
  {
    "name": "Pacific/Marquesas",
    "code": "Pacific_Marquesas"
  },
  {
    "name": "Pacific/Midway",
    "code": "Pacific_Midway"
  },
  {
    "name": "Pacific/Nauru",
    "code": "Pacific_Nauru"
  },
  {
    "name": "Pacific/Niue",
    "code": "Pacific_Niue"
  },
  {
    "name": "Pacific/Norfolk",
    "code": "Pacific_Norfolk"
  },
  {
    "name": "Pacific/Noumea",
    "code": "Pacific_Noumea"
  },
  {
    "name": "Pacific/Pago_Pago",
    "code": "Pacific_Pago_Pago"
  },
  {
    "name": "Pacific/Palau",
    "code": "Pacific_Palau"
  },
  {
    "name": "Pacific/Pitcairn",
    "code": "Pacific_Pitcairn"
  },
  {
    "name": "Pacific/Pohnpei",
    "code": "Pacific_Pohnpei"
  },
  {
    "name": "Pacific/Ponape",
    "code": "Pacific_Ponape"
  },
  {
    "name": "Pacific/Port_Moresby",
    "code": "Pacific_Port_Moresby"
  },
  {
    "name": "Pacific/Rarotonga",
    "code": "Pacific_Rarotonga"
  },
  {
    "name": "Pacific/Saipan",
    "code": "Pacific_Saipan"
  },
  {
    "name": "Pacific/Samoa",
    "code": "Pacific_Samoa"
  },
  {
    "name": "Pacific/Tahiti",
    "code": "Pacific_Tahiti"
  },
  {
    "name": "Pacific/Tarawa",
    "code": "Pacific_Tarawa"
  },
  {
    "name": "Pacific/Tongatapu",
    "code": "Pacific_Tongatapu"
  },
  {
    "name": "Pacific/Truk",
    "code": "Pacific_Truk"
  },
  {
    "name": "Pacific/Wake",
    "code": "Pacific_Wake"
  },
  {
    "name": "Pacific/Wallis",
    "code": "Pacific_Wallis"
  },
  {
    "name": "Pacific/Yap",
    "code": "Pacific_Yap"
  },
  {
    "name": "Poland",
    "code": "Poland"
  },
  {
    "name": "Portugal",
    "code": "Portugal"
  },
  {
    "name": "ROC",
    "code": "ROC"
  },
  {
    "name": "ROK",
    "code": "ROK"
  },
  {
    "name": "Singapore",
    "code": "Singapore"
  },
  {
    "name": "Turkey",
    "code": "Turkey"
  },
  {
    "name": "UCT",
    "code": "UCT"
  },
  {
    "name": "US/Alaska",
    "code": "US_Alaska"
  },
  {
    "name": "US/Aleutian",
    "code": "US_Aleutian"
  },
  {
    "name": "US/Arizona",
    "code": "US_Arizona"
  },
  {
    "name": "US/Central",
    "code": "US_Central"
  },
  {
    "name": "US/East-Indiana",
    "code": "US_East_Indiana"
  },
  {
    "name": "US/Eastern",
    "code": "US_Eastern"
  },
  {
    "name": "US/Hawaii",
    "code": "US_Hawaii"
  },
  {
    "name": "US/Indiana-Starke",
    "code": "US_Indiana_Starke"
  },
  {
    "name": "US/Michigan",
    "code": "US_Michigan"
  },
  {
    "name": "US/Mountain",
    "code": "US_Mountain"
  },
  {
    "name": "US/Pacific",
    "code": "US_Pacific"
  },
  {
    "name": "US/Pacific-New",
    "code": "US_Pacific_New"
  },
  {
    "name": "US/Samoa",
    "code": "US_Samoa"
  },
  {
    "name": "UTC",
    "code": "UTC"
  },
  {
    "name": "Universal",
    "code": "Universal"
  },
  {
    "name": "W-SU",
    "code": "W_SU"
  },
  {
    "name": "WET",
    "code": "WET"
  },
  {
    "name": "Zulu",
    "code": "Zulu"
  }
]
